{
    "KPlugin": {
        "Category": "Window Open/Close Animation",
        "Description": "Glide windows as they appear or disappear",
        "Description[ar]": "تنزلق النوافذ حال ظهورها أو اختفائها",
        "Description[az]": "Pəncərələrin süzülərək açılması və ya bağlanması",
        "Description[ca@valencia]": "Les finestres llisquen en aparèixer o desaparèixer",
        "Description[ca]": "Les finestres llisquen en aparèixer o desaparèixer",
        "Description[en_GB]": "Glide windows as they appear or disappear",
        "Description[es]": "Deslizar las ventanas a medida que aparecen o desaparecen",
        "Description[fi]": "Liu’uta ilmestyviä tai katoavia ikkunoita",
        "Description[fr]": "Faire glisser les fenêtres lorsqu'elles apparaissent ou disparaissent",
        "Description[hu]": "Be- és kicsúsztatja az ablakokat ahogy azok megjelennek vagy eltűnnek",
        "Description[ia]": "Glissa fenestras quando illes appare e disappare",
        "Description[it]": "Planata delle finestre quando appaiono o scompaiono",
        "Description[ko]": "창이 나타나거나 사라질 때 미끄러짐 효과 사용하기",
        "Description[nl]": "Vensters laten glijden als ze verschijnen of verdwijnen",
        "Description[nn]": "Glid inn/ut vindauge",
        "Description[pl]": "Okna obracają się na zawiasie przy otwieraniu lub zamykaniu",
        "Description[pt_BR]": "Deslizar as janelas à medida que aparecem ou desaparecem",
        "Description[ru]": "Эффект «глиссирования» окон при появлении и исчезновении",
        "Description[sk]": "Kĺzať okná ako sa objavujú alebo miznú",
        "Description[sl]": "Okna drsijo, ko se pojavijo ali izginejo",
        "Description[sv]": "Glid fönster när de visas eller försvinner",
        "Description[uk]": "Ковзання вікон при появі або зникненні",
        "Description[vi]": "Lướt các cửa sổ khi chúng xuất hiện hoặc biến mất",
        "Description[x-test]": "xxGlide windows as they appear or disappearxx",
        "Description[zh_CN]": "窗口显示/隐藏时呈现滑翔过渡动效",
        "EnabledByDefault": false,
        "Id": "glide",
        "License": "GPL",
        "Name": "Glide",
        "Name[ar]": "الطيران",
        "Name[az]": "Sürüşmə",
        "Name[ca@valencia]": "Lliscament",
        "Name[ca]": "Lliscament",
        "Name[cs]": "Klouzání",
        "Name[en_GB]": "Glide",
        "Name[es]": "Planear",
        "Name[fi]": "Ikkunaliuku",
        "Name[fr]": "Glisser",
        "Name[hu]": "Csúsztatás",
        "Name[ia]": "Glissa",
        "Name[it]": "Plana",
        "Name[ko]": "글라이드",
        "Name[nl]": "Schuiven",
        "Name[nn]": "Skliding",
        "Name[pl]": "Obracanie na zawiasie",
        "Name[pt]": "Deslizar",
        "Name[pt_BR]": "Deslizar",
        "Name[ru]": "Скольжение",
        "Name[sk]": "Kĺzať",
        "Name[sl]": "Drsanje",
        "Name[sv]": "Glid",
        "Name[uk]": "Плин",
        "Name[vi]": "Lướt",
        "Name[x-test]": "xxGlidexx",
        "Name[zh_CN]": "滑翔动效"
    },
    "X-KDE-ConfigModule": "kwin_glide_config",
    "org.kde.kwin.effect": {
        "exclusiveGroup": "toplevel-open-close-animation"
    }
}
