{
    "KPlugin": {
        "Category": "Appearance",
        "Description": "Visualize touch points",
        "Description[ar]": "تصور نقاط اللمس",
        "Description[az]": "Ekranda toxunan nöqtələri canlandırır",
        "Description[ca@valencia]": "Visualitza els punts de contacte",
        "Description[ca]": "Visualitza els punts de contacte",
        "Description[cs]": "Vizualizovat dotekové body",
        "Description[en_GB]": "Visualise touch points",
        "Description[es]": "Visualizar los puntos de contacto",
        "Description[fi]": "Korosta kosketuspisteet",
        "Description[fr]": "Afficher les points tactiles",
        "Description[hu]": "Vizualizálja az érintési pontokat",
        "Description[ia]": "Visualisa punctos de contacto",
        "Description[it]": "Visualizza i punti di tocco",
        "Description[ko]": "터치 지점 표시",
        "Description[nl]": "Aanraakpunten visualiseren",
        "Description[nn]": "Visualiser kontaktpunkt",
        "Description[pl]": "Uwidacznia punkty dotyku",
        "Description[pt_BR]": "Visualizar pontos de toque",
        "Description[ru]": "Визуализация событий касания экрана",
        "Description[sk]": "Vizualizovať dotykové body",
        "Description[sl]": "Vizualiziraj točke dotika",
        "Description[sv]": "Åskådliggör beröringspunkter",
        "Description[ta]": "தொடப்படும் இடங்களை காட்டும்",
        "Description[uk]": "Візуалізувати точки дотику",
        "Description[vi]": "Trực quan hoá các điểm chạm",
        "Description[x-test]": "xxVisualize touch pointsxx",
        "Description[zh_CN]": "高亮显示在触控屏幕上的触摸点",
        "EnabledByDefault": false,
        "Id": "touchpoints",
        "License": "GPL",
        "Name": "Touch Points",
        "Name[ar]": "نقاط اللمس",
        "Name[az]": "Toxunma nöqtələri",
        "Name[ca@valencia]": "Punts de contacte",
        "Name[ca]": "Punts de contacte",
        "Name[cs]": "Dotekové body",
        "Name[en_GB]": "Touch Points",
        "Name[es]": "Puntos de contacto",
        "Name[fi]": "Kosketuspisteet",
        "Name[fr]": "Points tactiles",
        "Name[hu]": "Érintési pontok",
        "Name[ia]": "Punctos de contacto",
        "Name[it]": "Punti di tocco",
        "Name[ko]": "터치 지점",
        "Name[nl]": "Aanraakpunten",
        "Name[nn]": "Kontaktpunkt",
        "Name[pl]": "Punkty dotyku",
        "Name[pt_BR]": "Pontos de toque",
        "Name[ru]": "Точки прикосновения",
        "Name[sk]": "Dotykové body",
        "Name[sl]": "Točke dotika",
        "Name[sv]": "Beröringspunkter",
        "Name[ta]": "தொடும் இடங்கள்",
        "Name[uk]": "Точки дотику",
        "Name[vi]": "Điểm chạm",
        "Name[x-test]": "xxTouch Pointsxx",
        "Name[zh_CN]": "触摸点高亮"
    }
}
