{
    "KPlugin": {
        "Category": "Accessibility",
        "Description": "Supports picking a color",
        "Description[ar]": "يدعم انتقاء لون",
        "Description[az]": "Rəng seçimi dəstəklənir",
        "Description[ca@valencia]": "Permet seleccionar un color",
        "Description[ca]": "Permet seleccionar un color",
        "Description[cs]": "Podporuje výběr barev",
        "Description[en_GB]": "Supports picking a colour",
        "Description[es]": "Permite seleccionar un color",
        "Description[fi]": "Antaa valita ruudulta värin",
        "Description[fr]": "Permet de sélectionner une couleur",
        "Description[hu]": "Támogatja a színválasztást",
        "Description[ia]": "Supporta seliger un color",
        "Description[it]": "Supporta la selezione di un colore",
        "Description[ko]": "색상 선택 지원",
        "Description[nl]": "Ondersteunt een kleur kiezen",
        "Description[nn]": "Støttar veljing av farge",
        "Description[pl]": "Obsługuje wybieranie koloru",
        "Description[pt_BR]": "Suporta a escolha de uma cor",
        "Description[ru]": "Выбор цвета на экране",
        "Description[sk]": "Podporuje výber farby",
        "Description[sl]": "Podpira izbiro barve",
        "Description[sv]": "Stöder att hämta en färg",
        "Description[ta]": "திரையிலுள்ள ஓர் நிறத்தை தேர்ந்தெடுக்க உதவும்",
        "Description[uk]": "Підтримка взяття кольору з екрана",
        "Description[vi]": "Hỗ trợ nhặt màu",
        "Description[x-test]": "xxSupports picking a colorxx",
        "Description[zh_CN]": "拾色器专用辅助特效",
        "EnabledByDefault": true,
        "Id": "colorpicker",
        "License": "GPL",
        "Name": "Color Picker",
        "Name[ar]": "منتق الألوان",
        "Name[az]": "Rəng seçimi",
        "Name[ca@valencia]": "Selector de color",
        "Name[ca]": "Selector de color",
        "Name[cs]": "Kapátko",
        "Name[en_GB]": "Colour Picker",
        "Name[es]": "Selector de color",
        "Name[fi]": "Värivalinta",
        "Name[fr]": "Sélecteur de couleurs",
        "Name[hu]": "Színválasztó",
        "Name[ia]": "Selectionator de color",
        "Name[it]": "Selettore del colore",
        "Name[ko]": "색상 선택기",
        "Name[nl]": "Kleurenkiezer",
        "Name[nn]": "Fargeveljar",
        "Name[pl]": "Wybierak barwy",
        "Name[pt]": "Selector de Cores",
        "Name[pt_BR]": "Seletor de cores",
        "Name[ru]": "Выбор цвета",
        "Name[sk]": "Výber farby",
        "Name[sl]": "Izbirnik barv",
        "Name[sv]": "Färghämtare",
        "Name[ta]": "வண்ண எடுப்பான்",
        "Name[uk]": "Піпетка",
        "Name[vi]": "Trình nhặt màu",
        "Name[x-test]": "xxColor Pickerxx",
        "Name[zh_CN]": "拾色器"
    },
    "org.kde.kwin.effect": {
        "internal": true
    }
}
